^C:\USERS\SIMON\SOURCE\REPOS\MEMORY-MANAGER\MEMORY-MANAGER\CHUNK.CPP|C:\USERS\SIMON\SOURCE\REPOS\MEMORY-MANAGER\MEMORY-MANAGER\FIXEDALLOCATOR.CPP|C:\USERS\SIMON\SOURCE\REPOS\MEMORY-MANAGER\MEMORY-MANAGER\GENERALPURPOSEALLOCATOR.CPP|C:\USERS\SIMON\SOURCE\REPOS\MEMORY-MANAGER\MEMORY-MANAGER\MAIN.CPP|C:\USERS\SIMON\SOURCE\REPOS\MEMORY-MANAGER\MEMORY-MANAGER\MEMORYMANAGER.CPP|C:\USERS\SIMON\SOURCE\REPOS\MEMORY-MANAGER\MEMORY-MANAGER\SMALLOBJECTALLOCATOR.CPP
C:\USERS\SIMON\SOURCE\REPOS\MEMORY-MANAGER\MEMORY-MANAGER\X64\DEBUG\VC142.PDB
C:\USERS\SIMON\SOURCE\REPOS\MEMORY-MANAGER\MEMORY-MANAGER\X64\DEBUG\VC142.IDB
C:\USERS\SIMON\SOURCE\REPOS\MEMORY-MANAGER\MEMORY-MANAGER\X64\DEBUG\FIXEDALLOCATOR.OBJ
C:\USERS\SIMON\SOURCE\REPOS\MEMORY-MANAGER\MEMORY-MANAGER\X64\DEBUG\SMALLOBJECTALLOCATOR.OBJ
C:\USERS\SIMON\SOURCE\REPOS\MEMORY-MANAGER\MEMORY-MANAGER\X64\DEBUG\MEMORYMANAGER.OBJ
C:\USERS\SIMON\SOURCE\REPOS\MEMORY-MANAGER\MEMORY-MANAGER\X64\DEBUG\MAIN.OBJ
C:\USERS\SIMON\SOURCE\REPOS\MEMORY-MANAGER\MEMORY-MANAGER\X64\DEBUG\GENERALPURPOSEALLOCATOR.OBJ
C:\USERS\SIMON\SOURCE\REPOS\MEMORY-MANAGER\MEMORY-MANAGER\X64\DEBUG\CHUNK.OBJ
^C:\USERS\SIMON\SOURCE\REPOS\MEMORY-MANAGER\MEMORY-MANAGER\ALLOCATOR.CPP|C:\USERS\SIMON\SOURCE\REPOS\MEMORY-MANAGER\MEMORY-MANAGER\CHUNK.CPP|C:\USERS\SIMON\SOURCE\REPOS\MEMORY-MANAGER\MEMORY-MANAGER\FIXEDALLOCATOR.CPP|C:\USERS\SIMON\SOURCE\REPOS\MEMORY-MANAGER\MEMORY-MANAGER\FREELISTALLOCATOR.CPP|C:\USERS\SIMON\SOURCE\REPOS\MEMORY-MANAGER\MEMORY-MANAGER\MAIN.CPP|C:\USERS\SIMON\SOURCE\REPOS\MEMORY-MANAGER\MEMORY-MANAGER\MEMORYMANAGER.CPP|C:\USERS\SIMON\SOURCE\REPOS\MEMORY-MANAGER\MEMORY-MANAGER\SMALLOBJECTALLOCATOR.CPP
C:\USERS\SIMON\SOURCE\REPOS\MEMORY-MANAGER\MEMORY-MANAGER\X64\DEBUG\VC142.PDB
C:\USERS\SIMON\SOURCE\REPOS\MEMORY-MANAGER\MEMORY-MANAGER\X64\DEBUG\VC142.IDB
C:\USERS\SIMON\SOURCE\REPOS\MEMORY-MANAGER\MEMORY-MANAGER\X64\DEBUG\FIXEDALLOCATOR.OBJ
C:\USERS\SIMON\SOURCE\REPOS\MEMORY-MANAGER\MEMORY-MANAGER\X64\DEBUG\SMALLOBJECTALLOCATOR.OBJ
C:\USERS\SIMON\SOURCE\REPOS\MEMORY-MANAGER\MEMORY-MANAGER\X64\DEBUG\MEMORYMANAGER.OBJ
C:\USERS\SIMON\SOURCE\REPOS\MEMORY-MANAGER\MEMORY-MANAGER\X64\DEBUG\MAIN.OBJ
C:\USERS\SIMON\SOURCE\REPOS\MEMORY-MANAGER\MEMORY-MANAGER\X64\DEBUG\CHUNK.OBJ
C:\USERS\SIMON\SOURCE\REPOS\MEMORY-MANAGER\MEMORY-MANAGER\X64\DEBUG\ALLOCATOR.OBJ
^C:\USERS\SIMON\SOURCE\REPOS\MEMORY-MANAGER\MEMORY-MANAGER\ALLOCATOR.CPP
C:\USERS\SIMON\SOURCE\REPOS\MEMORY-MANAGER\MEMORY-MANAGER\X64\DEBUG\ALLOCATOR.OBJ
^C:\USERS\SIMON\SOURCE\REPOS\MEMORY-MANAGER\MEMORY-MANAGER\FIXEDALLOCATOR.CPP|C:\USERS\SIMON\SOURCE\REPOS\MEMORY-MANAGER\MEMORY-MANAGER\FREELISTALLOCATOR.CPP|C:\USERS\SIMON\SOURCE\REPOS\MEMORY-MANAGER\MEMORY-MANAGER\MAIN.CPP
C:\USERS\SIMON\SOURCE\REPOS\MEMORY-MANAGER\MEMORY-MANAGER\X64\DEBUG\VC142.PDB
C:\USERS\SIMON\SOURCE\REPOS\MEMORY-MANAGER\MEMORY-MANAGER\X64\DEBUG\VC142.IDB
C:\USERS\SIMON\SOURCE\REPOS\MEMORY-MANAGER\MEMORY-MANAGER\X64\DEBUG\FIXEDALLOCATOR.OBJ
C:\USERS\SIMON\SOURCE\REPOS\MEMORY-MANAGER\MEMORY-MANAGER\X64\DEBUG\MAIN.OBJ
^C:\USERS\SIMON\SOURCE\REPOS\MEMORY-MANAGER\MEMORY-MANAGER\FIXEDALLOCATOR.CPP|C:\USERS\SIMON\SOURCE\REPOS\MEMORY-MANAGER\MEMORY-MANAGER\FREELISTALLOCATOR.CPP
C:\USERS\SIMON\SOURCE\REPOS\MEMORY-MANAGER\MEMORY-MANAGER\X64\DEBUG\VC142.PDB
C:\USERS\SIMON\SOURCE\REPOS\MEMORY-MANAGER\MEMORY-MANAGER\X64\DEBUG\VC142.IDB
C:\USERS\SIMON\SOURCE\REPOS\MEMORY-MANAGER\MEMORY-MANAGER\X64\DEBUG\FIXEDALLOCATOR.OBJ
C:\USERS\SIMON\SOURCE\REPOS\MEMORY-MANAGER\MEMORY-MANAGER\X64\DEBUG\FREELISTALLOCATOR.OBJ
^C:\USERS\SIMON\SOURCE\REPOS\MEMORY-MANAGER\MEMORY-MANAGER\FREELISTALLOCATOR.CPP|C:\USERS\SIMON\SOURCE\REPOS\MEMORY-MANAGER\MEMORY-MANAGER\MAIN.CPP|C:\USERS\SIMON\SOURCE\REPOS\MEMORY-MANAGER\MEMORY-MANAGER\MEMORYMANAGER.CPP
C:\USERS\SIMON\SOURCE\REPOS\MEMORY-MANAGER\MEMORY-MANAGER\X64\DEBUG\VC142.PDB
C:\USERS\SIMON\SOURCE\REPOS\MEMORY-MANAGER\MEMORY-MANAGER\X64\DEBUG\VC142.IDB
C:\USERS\SIMON\SOURCE\REPOS\MEMORY-MANAGER\MEMORY-MANAGER\X64\DEBUG\MEMORYMANAGER.OBJ
C:\USERS\SIMON\SOURCE\REPOS\MEMORY-MANAGER\MEMORY-MANAGER\X64\DEBUG\MAIN.OBJ
^C:\USERS\SIMON\SOURCE\REPOS\MEMORY-MANAGER\MEMORY-MANAGER\MAIN.CPP|C:\USERS\SIMON\SOURCE\REPOS\MEMORY-MANAGER\MEMORY-MANAGER\SMALLOBJECTALLOCATOR.CPP
C:\USERS\SIMON\SOURCE\REPOS\MEMORY-MANAGER\MEMORY-MANAGER\X64\DEBUG\VC142.PDB
C:\USERS\SIMON\SOURCE\REPOS\MEMORY-MANAGER\MEMORY-MANAGER\X64\DEBUG\VC142.IDB
C:\USERS\SIMON\SOURCE\REPOS\MEMORY-MANAGER\MEMORY-MANAGER\X64\DEBUG\MAIN.OBJ
^C:\USERS\SIMON\SOURCE\REPOS\MEMORY-MANAGER\MEMORY-MANAGER\MAIN.CPP|C:\USERS\SIMON\SOURCE\REPOS\MEMORY-MANAGER\MEMORY-MANAGER\MEMORYMANAGER.CPP
C:\USERS\SIMON\SOURCE\REPOS\MEMORY-MANAGER\MEMORY-MANAGER\X64\DEBUG\VC142.PDB
C:\USERS\SIMON\SOURCE\REPOS\MEMORY-MANAGER\MEMORY-MANAGER\X64\DEBUG\VC142.IDB
C:\USERS\SIMON\SOURCE\REPOS\MEMORY-MANAGER\MEMORY-MANAGER\X64\DEBUG\MAIN.OBJ
C:\USERS\SIMON\SOURCE\REPOS\MEMORY-MANAGER\MEMORY-MANAGER\X64\DEBUG\MEMORYMANAGER.OBJ
^C:\USERS\SIMON\SOURCE\REPOS\MEMORY-MANAGER\MEMORY-MANAGER\MAIN.CPP
C:\USERS\SIMON\SOURCE\REPOS\MEMORY-MANAGER\MEMORY-MANAGER\X64\DEBUG\VC142.PDB
C:\USERS\SIMON\SOURCE\REPOS\MEMORY-MANAGER\MEMORY-MANAGER\X64\DEBUG\VC142.IDB
C:\USERS\SIMON\SOURCE\REPOS\MEMORY-MANAGER\MEMORY-MANAGER\X64\DEBUG\MAIN.OBJ
^C:\USERS\SIMON\SOURCE\REPOS\MEMORY-MANAGER\MEMORY-MANAGER\FIXEDALLOCATOR.CPP|C:\USERS\SIMON\SOURCE\REPOS\MEMORY-MANAGER\MEMORY-MANAGER\GENERALPURPOSEALLOCATOR.CPP|C:\USERS\SIMON\SOURCE\REPOS\MEMORY-MANAGER\MEMORY-MANAGER\MEMORYMANAGER.CPP|C:\USERS\SIMON\SOURCE\REPOS\MEMORY-MANAGER\MEMORY-MANAGER\SMALLOBJECTALLOCATOR.CPP
C:\USERS\SIMON\SOURCE\REPOS\MEMORY-MANAGER\MEMORY-MANAGER\X64\DEBUG\VC142.PDB
C:\USERS\SIMON\SOURCE\REPOS\MEMORY-MANAGER\MEMORY-MANAGER\X64\DEBUG\VC142.IDB
C:\USERS\SIMON\SOURCE\REPOS\MEMORY-MANAGER\MEMORY-MANAGER\X64\DEBUG\SMALLOBJECTALLOCATOR.OBJ
C:\USERS\SIMON\SOURCE\REPOS\MEMORY-MANAGER\MEMORY-MANAGER\X64\DEBUG\MEMORYMANAGER.OBJ
C:\USERS\SIMON\SOURCE\REPOS\MEMORY-MANAGER\MEMORY-MANAGER\X64\DEBUG\GENERALPURPOSEALLOCATOR.OBJ
C:\USERS\SIMON\SOURCE\REPOS\MEMORY-MANAGER\MEMORY-MANAGER\X64\DEBUG\FIXEDALLOCATOR.OBJ
^C:\USERS\SIMON\SOURCE\REPOS\MEMORY-MANAGER\MEMORY-MANAGER\GENERALPURPOSEALLOCATOR.CPP
C:\USERS\SIMON\SOURCE\REPOS\MEMORY-MANAGER\MEMORY-MANAGER\X64\DEBUG\VC142.PDB
^C:\USERS\SIMON\SOURCE\REPOS\MEMORY-MANAGER\MEMORY-MANAGER\CHUNK.CPP|C:\USERS\SIMON\SOURCE\REPOS\MEMORY-MANAGER\MEMORY-MANAGER\FIXEDALLOCATOR.CPP|C:\USERS\SIMON\SOURCE\REPOS\MEMORY-MANAGER\MEMORY-MANAGER\MEMORYMANAGER.CPP|C:\USERS\SIMON\SOURCE\REPOS\MEMORY-MANAGER\MEMORY-MANAGER\SMALLOBJECTALLOCATOR.CPP
C:\USERS\SIMON\SOURCE\REPOS\MEMORY-MANAGER\MEMORY-MANAGER\X64\DEBUG\VC142.PDB
C:\USERS\SIMON\SOURCE\REPOS\MEMORY-MANAGER\MEMORY-MANAGER\X64\DEBUG\VC142.IDB
C:\USERS\SIMON\SOURCE\REPOS\MEMORY-MANAGER\MEMORY-MANAGER\X64\DEBUG\SMALLOBJECTALLOCATOR.OBJ
C:\USERS\SIMON\SOURCE\REPOS\MEMORY-MANAGER\MEMORY-MANAGER\X64\DEBUG\MEMORYMANAGER.OBJ
C:\USERS\SIMON\SOURCE\REPOS\MEMORY-MANAGER\MEMORY-MANAGER\X64\DEBUG\FIXEDALLOCATOR.OBJ
C:\USERS\SIMON\SOURCE\REPOS\MEMORY-MANAGER\MEMORY-MANAGER\X64\DEBUG\CHUNK.OBJ
^C:\USERS\SIMON\SOURCE\REPOS\MEMORY-MANAGER\MEMORY-MANAGER\CHUNK.CPP
C:\USERS\SIMON\SOURCE\REPOS\MEMORY-MANAGER\MEMORY-MANAGER\X64\DEBUG\VC142.PDB
^C:\USERS\SIMON\SOURCE\REPOS\MEMORY-MANAGER\MEMORY-MANAGER\FIXEDALLOCATOR.CPP|C:\USERS\SIMON\SOURCE\REPOS\MEMORY-MANAGER\MEMORY-MANAGER\MEMORYMANAGER.CPP|C:\USERS\SIMON\SOURCE\REPOS\MEMORY-MANAGER\MEMORY-MANAGER\SMALLOBJECTALLOCATOR.CPP
C:\USERS\SIMON\SOURCE\REPOS\MEMORY-MANAGER\MEMORY-MANAGER\X64\DEBUG\VC142.PDB
C:\USERS\SIMON\SOURCE\REPOS\MEMORY-MANAGER\MEMORY-MANAGER\X64\DEBUG\VC142.IDB
C:\USERS\SIMON\SOURCE\REPOS\MEMORY-MANAGER\MEMORY-MANAGER\X64\DEBUG\FIXEDALLOCATOR.OBJ
C:\USERS\SIMON\SOURCE\REPOS\MEMORY-MANAGER\MEMORY-MANAGER\X64\DEBUG\SMALLOBJECTALLOCATOR.OBJ
C:\USERS\SIMON\SOURCE\REPOS\MEMORY-MANAGER\MEMORY-MANAGER\X64\DEBUG\MEMORYMANAGER.OBJ
^C:\USERS\SIMON\SOURCE\REPOS\MEMORY-MANAGER\MEMORY-MANAGER\SMALLOBJECTALLOCATOR.CPP
C:\USERS\SIMON\SOURCE\REPOS\MEMORY-MANAGER\MEMORY-MANAGER\X64\DEBUG\VC142.PDB
^C:\USERS\SIMON\SOURCE\REPOS\MEMORY-MANAGER\MEMORY-MANAGER\FIXEDALLOCATOR.CPP
C:\USERS\SIMON\SOURCE\REPOS\MEMORY-MANAGER\MEMORY-MANAGER\X64\DEBUG\VC142.PDB
^C:\USERS\SIMON\SOURCE\REPOS\MEMORY-MANAGER\MEMORY-MANAGER\FREELISTALLOCATOR.CPP|C:\USERS\SIMON\SOURCE\REPOS\MEMORY-MANAGER\MEMORY-MANAGER\MEMORYMANAGER.CPP
C:\USERS\SIMON\SOURCE\REPOS\MEMORY-MANAGER\MEMORY-MANAGER\X64\DEBUG\VC142.PDB
C:\USERS\SIMON\SOURCE\REPOS\MEMORY-MANAGER\MEMORY-MANAGER\X64\DEBUG\VC142.IDB
C:\USERS\SIMON\SOURCE\REPOS\MEMORY-MANAGER\MEMORY-MANAGER\X64\DEBUG\MEMORYMANAGER.OBJ
C:\USERS\SIMON\SOURCE\REPOS\MEMORY-MANAGER\MEMORY-MANAGER\X64\DEBUG\FREELISTALLOCATOR.OBJ
^C:\USERS\SIMON\SOURCE\REPOS\MEMORY-MANAGER\MEMORY-MANAGER\FREELISTALLOCATOR.CPP
C:\USERS\SIMON\SOURCE\REPOS\MEMORY-MANAGER\MEMORY-MANAGER\X64\DEBUG\VC142.PDB
^C:\USERS\SIMON\SOURCE\REPOS\MEMORY-MANAGER\MEMORY-MANAGER\MEMORYMANAGER.CPP
C:\USERS\SIMON\SOURCE\REPOS\MEMORY-MANAGER\MEMORY-MANAGER\X64\DEBUG\VC142.PDB
