^C:\USERS\SIMON\SOURCE\REPOS\MEMORY-MANAGER\MEMORY-MANAGER\RELEASE\CHUNK.OBJ|C:\USERS\SIMON\SOURCE\REPOS\MEMORY-MANAGER\MEMORY-MANAGER\RELEASE\FIXEDALLOCATOR.OBJ|C:\USERS\SIMON\SOURCE\REPOS\MEMORY-MANAGER\MEMORY-MANAGER\RELEASE\MAIN.OBJ|C:\USERS\SIMON\SOURCE\REPOS\MEMORY-MANAGER\MEMORY-MANAGER\RELEASE\SMALLOBJECT.OBJ|C:\USERS\SIMON\SOURCE\REPOS\MEMORY-MANAGER\MEMORY-MANAGER\RELEASE\SMALLOBJECTALLOCATOR.OBJ
C:\USERS\SIMON\SOURCE\REPOS\MEMORY-MANAGER\RELEASE\MEMORY-MANAGER.EXE
C:\USERS\SIMON\SOURCE\REPOS\MEMORY-MANAGER\MEMORY-MANAGER\RELEASE\MEMORY-MANAGER.IPDB
C:\USERS\SIMON\SOURCE\REPOS\MEMORY-MANAGER\MEMORY-MANAGER\RELEASE\MEMORY-MANAGER.IOBJ
C:\USERS\SIMON\SOURCE\REPOS\MEMORY-MANAGER\RELEASE\MEMORY-MANAGER.PDB
