^C:\USERS\SIMON\SOURCE\REPOS\MEMORY-MANAGER\MEMORY-MANAGER\DEBUG\CHUNK.OBJ|C:\USERS\SIMON\SOURCE\REPOS\MEMORY-MANAGER\MEMORY-MANAGER\DEBUG\FIXEDALLOCATOR.OBJ|C:\USERS\SIMON\SOURCE\REPOS\MEMORY-MANAGER\MEMORY-MANAGER\DEBUG\MAIN.OBJ|C:\USERS\SIMON\SOURCE\REPOS\MEMORY-MANAGER\MEMORY-MANAGER\DEBUG\SMALLOBJECT.OBJ|C:\USERS\SIMON\SOURCE\REPOS\MEMORY-MANAGER\MEMORY-MANAGER\DEBUG\SMALLOBJECTALLOCATOR.OBJ
C:\PROGRAM FILES (X86)\WINDOWS KITS\10\LIB\10.0.19041.0\UM\X86\KERNEL32.LIB
C:\PROGRAM FILES (X86)\WINDOWS KITS\10\LIB\10.0.19041.0\UM\X86\USER32.LIB
C:\PROGRAM FILES (X86)\WINDOWS KITS\10\LIB\10.0.19041.0\UM\X86\GDI32.LIB
C:\PROGRAM FILES (X86)\WINDOWS KITS\10\LIB\10.0.19041.0\UM\X86\WINSPOOL.LIB
C:\PROGRAM FILES (X86)\WINDOWS KITS\10\LIB\10.0.19041.0\UM\X86\COMDLG32.LIB
C:\PROGRAM FILES (X86)\WINDOWS KITS\10\LIB\10.0.19041.0\UM\X86\ADVAPI32.LIB
C:\PROGRAM FILES (X86)\WINDOWS KITS\10\LIB\10.0.19041.0\UM\X86\SHELL32.LIB
C:\PROGRAM FILES (X86)\WINDOWS KITS\10\LIB\10.0.19041.0\UM\X86\OLE32.LIB
C:\PROGRAM FILES (X86)\WINDOWS KITS\10\LIB\10.0.19041.0\UM\X86\OLEAUT32.LIB
C:\PROGRAM FILES (X86)\WINDOWS KITS\10\LIB\10.0.19041.0\UM\X86\UUID.LIB
C:\PROGRAM FILES (X86)\WINDOWS KITS\10\LIB\10.0.19041.0\UM\X86\ODBC32.LIB
C:\PROGRAM FILES (X86)\WINDOWS KITS\10\LIB\10.0.19041.0\UM\X86\ODBCCP32.LIB
C:\USERS\SIMON\SOURCE\REPOS\MEMORY-MANAGER\MEMORY-MANAGER\DEBUG\CHUNK.OBJ
C:\USERS\SIMON\SOURCE\REPOS\MEMORY-MANAGER\MEMORY-MANAGER\DEBUG\MAIN.OBJ
C:\USERS\SIMON\SOURCE\REPOS\MEMORY-MANAGER\MEMORY-MANAGER\DEBUG\SMALLOBJECTALLOCATOR.OBJ
C:\USERS\SIMON\SOURCE\REPOS\MEMORY-MANAGER\MEMORY-MANAGER\DEBUG\SMALLOBJECT.OBJ
C:\USERS\SIMON\SOURCE\REPOS\MEMORY-MANAGER\MEMORY-MANAGER\DEBUG\FIXEDALLOCATOR.OBJ
C:\USERS\SIMON\SOURCE\REPOS\MEMORY-MANAGER\MEMORY-MANAGER\DEBUG\MEMORY-MANAGER.ILK
C:\WINDOWS\SYSTEM32\TZRES.DLL
C:\WINDOWS\GLOBALIZATION\SORTING\SORTDEFAULT.NLS
C:\PROGRAM FILES (X86)\MICROSOFT VISUAL STUDIO\2019\COMMUNITY\VC\TOOLS\MSVC\14.29.30037\LIB\X86\MSVCPRTD.LIB
C:\PROGRAM FILES (X86)\MICROSOFT VISUAL STUDIO\2019\COMMUNITY\VC\TOOLS\MSVC\14.29.30037\LIB\X86\MSVCRTD.LIB
C:\PROGRAM FILES (X86)\MICROSOFT VISUAL STUDIO\2019\COMMUNITY\VC\TOOLS\MSVC\14.29.30037\LIB\X86\OLDNAMES.LIB
C:\PROGRAM FILES (X86)\MICROSOFT VISUAL STUDIO\2019\COMMUNITY\VC\TOOLS\MSVC\14.29.30037\LIB\X86\VCRUNTIMED.LIB
C:\PROGRAM FILES (X86)\WINDOWS KITS\10\LIB\10.0.19041.0\UCRT\X86\UCRTD.LIB
